<?xml version="1.0" standalone="no"?>
<!DOCTYPE svg PUBLIC "-//W3C//DTD SVG 20010904//EN"
 "http://www.w3.org/TR/2001/REC-SVG-20010904/DTD/svg10.dtd">
<svg version="1.0" xmlns="http://www.w3.org/2000/svg"
 width="763.000000pt" height="720.000000pt" viewBox="0 0 763.000000 720.000000"
 preserveAspectRatio="xMidYMid meet">
<metadata>
Created by potrace 1.13, written by Peter Selinger 2001-2015
</metadata>
<g transform="translate(0.000000,720.000000) scale(0.100000,-0.100000)"
fill="#000000" stroke="none">
<path d="M2185 7185 c-38 -7 -77 -14 -86 -14 -9 -1 -27 -21 -40 -45 -13 -24
-46 -79 -74 -123 l-50 -79 -64 0 -65 1 -14 -50 c-14 -47 -12 -83 9 -154 6 -23
-54 -57 -143 -81 -96 -26 -156 -54 -165 -77 -10 -26 54 -74 172 -128 120 -54
122 -58 80 -142 -17 -33 -54 -76 -107 -124 -44 -40 -87 -88 -94 -106 -11 -25
-20 -33 -40 -33 -39 0 -63 -17 -57 -40 6 -24 21 -26 29 -5 10 25 24 17 24 -15
0 -24 -4 -30 -21 -30 -11 0 -19 -3 -17 -7 2 -5 22 -44 45 -89 77 -149 93 -258
64 -441 -13 -81 -14 -83 -41 -83 -39 0 -60 -9 -60 -26 0 -17 30 -18 65 -2 14
6 28 9 31 6 8 -9 -26 -228 -45 -285 l-17 -51 27 -6 c32 -6 59 -49 59 -95 0
-25 -4 -30 -27 -33 -29 -3 -37 -16 -24 -36 7 -11 18 -11 64 -1 49 12 56 17 63
44 6 27 7 28 11 7 6 -31 17 -26 61 33 35 46 70 67 65 37 -2 -6 -4 -18 -5 -24
-5 -25 26 -12 44 18 17 29 29 98 43 248 7 73 13 75 39 8 9 -24 44 -89 78 -145
109 -181 123 -218 123 -327 l0 -95 -111 -220 c-161 -317 -221 -463 -285 -685
-16 -56 -29 -82 -55 -105 -41 -37 -58 -86 -108 -297 -37 -155 -38 -158 -84
-206 -61 -62 -118 -197 -125 -293 -3 -51 -15 -90 -51 -170 -45 -98 -76 -193
-76 -230 0 -11 12 -18 38 -23 41 -6 73 -35 115 -102 21 -33 33 -43 64 -49 57
-10 73 -30 73 -87 0 -27 -4 -58 -10 -68 -8 -15 -3 -21 39 -39 63 -27 182 -45
251 -38 51 6 57 4 85 -23 17 -16 73 -46 125 -67 l95 -38 -2 -40 c-11 -185 -6
-307 22 -475 31 -183 39 -390 18 -455 l-10 -30 -69 5 c-105 8 -510 6 -589 -2
l-70 -8 55 32 c79 45 168 139 245 258 37 58 83 129 102 159 37 57 41 58 111
30 61 -25 94 32 53 90 -24 33 -35 32 -126 -8 -70 -31 -75 -29 -75 29 0 125
-97 223 -246 251 -94 17 -193 -7 -263 -67 -28 -24 -31 -31 -31 -86 0 -103 39
-151 134 -164 43 -6 46 -5 65 27 23 38 27 89 9 107 -7 7 -33 12 -59 12 -58 0
-67 11 -40 49 79 110 302 58 357 -84 26 -70 16 -176 -26 -261 -38 -77 -140
-190 -239 -263 -76 -56 -260 -165 -268 -158 -2 3 10 38 27 78 36 82 47 138 32
164 -8 15 -11 12 -22 -21 -72 -225 -272 -353 -620 -397 l-103 -13 -13 -60
c-19 -93 -43 -131 -152 -235 -54 -52 -111 -114 -127 -137 -21 -31 -34 -42 -54
-42 -31 0 -101 -31 -119 -52 -18 -22 8 -41 56 -41 52 0 113 34 181 101 70 70
276 228 387 297 141 89 328 134 555 135 100 0 109 -2 176 -35 39 -19 79 -35
89 -35 31 0 0 21 -104 71 l-97 47 58 7 c68 9 307 -9 410 -30 108 -23 222 -59
422 -135 214 -81 320 -108 600 -155 288 -49 377 -75 489 -145 46 -28 48 -10 5
49 -17 24 -28 48 -26 55 3 7 30 16 61 19 30 3 140 28 243 56 103 27 220 55
258 61 125 20 202 -5 253 -80 27 -41 17 -48 -39 -30 -36 12 -40 12 -58 -11
-56 -68 -53 -107 12 -138 57 -28 78 -26 109 7 69 72 63 172 -14 251 -18 18
-45 39 -60 47 -46 24 -128 35 -181 25 -26 -4 -47 -6 -47 -2 0 14 71 82 95 91
16 6 43 6 74 0 82 -15 412 -48 651 -65 653 -46 769 -69 861 -173 50 -57 52
-82 5 -82 -54 0 -66 -8 -66 -47 0 -19 4 -43 10 -53 19 -36 85 -43 152 -15 46
19 28 118 -35 196 -58 71 -70 89 -66 93 2 3 40 -4 84 -15 198 -47 348 -63 620
-63 293 -1 377 10 548 68 l99 34 92 -44 c159 -75 278 -91 362 -47 52 27 53 40
2 53 -49 14 -109 43 -151 74 -35 26 -73 85 -61 95 5 4 47 33 94 63 96 64 219
183 287 279 60 84 147 265 173 359 46 166 61 362 40 515 -13 89 -40 205 -48
203 -4 0 -21 3 -38 7 -28 6 -33 14 -54 78 -31 100 -55 143 -110 201 -26 28
-60 75 -76 105 -40 75 -99 137 -223 239 -58 47 -119 98 -136 112 -17 16 -62
37 -105 50 -136 40 -267 119 -365 219 -50 52 -50 52 -47 110 4 68 -4 77 -54
61 -22 -8 -39 -9 -45 -3 -12 12 25 249 46 299 8 19 21 34 30 34 9 0 39 12 68
27 71 36 147 35 222 -1 114 -56 146 -145 78 -214 l-26 -26 -11 39 c-21 73 -80
85 -116 22 -13 -23 -13 -31 0 -69 15 -42 16 -43 63 -46 70 -5 130 27 156 82
30 60 27 93 -14 150 -19 27 -35 53 -35 57 0 4 17 5 39 2 53 -7 100 34 108 95
8 57 -14 56 -63 -4 -46 -56 -68 -65 -111 -48 -18 8 -68 14 -115 14 -131 0
-132 2 -72 64 125 129 148 253 62 334 l-25 22 1 -22 c1 -22 -2 -23 -56 -20
l-58 4 0 -32 c0 -39 34 -90 60 -90 11 0 24 9 30 20 6 11 18 20 27 20 13 0 15
-9 11 -54 -6 -73 -42 -125 -125 -184 -131 -93 -187 -137 -204 -162 -10 -14
-23 -57 -29 -96 -29 -186 60 -374 234 -499 60 -42 219 -125 241 -125 6 0 38
-16 71 -37 32 -20 79 -42 104 -48 27 -7 46 -19 48 -28 3 -14 -3 -14 -43 4
-117 52 -303 62 -620 33 -179 -17 -180 -17 -244 -55 -79 -47 -193 -76 -254
-63 l-42 9 -3 63 -3 62 -33 0 c-41 0 -45 -9 -38 -78 4 -43 10 -57 38 -81 57
-50 106 -51 248 -3 67 22 130 44 140 48 39 15 -127 -138 -170 -158 -37 -16
-43 -22 -33 -34 9 -11 6 -21 -17 -50 -83 -104 -116 -164 -140 -251 -11 -44
-15 -109 -14 -270 0 -162 -3 -221 -14 -247 -19 -44 -80 -88 -75 -53 4 32 -2
37 -46 37 -34 0 -47 -5 -55 -20 -15 -28 4 -83 35 -104 53 -35 101 -14 139 61
8 17 23 38 31 47 37 36 40 22 40 -161 -1 -146 -4 -185 -18 -218 -31 -70 -43
-78 -113 -70 l-62 6 -11 -32 c-19 -55 -14 -88 15 -99 62 -24 101 0 185 110 42
55 44 29 5 -58 -20 -44 -36 -87 -36 -95 0 -35 76 -60 124 -41 23 9 20 56 -9
147 -15 48 -23 88 -19 103 8 31 17 22 34 -29 17 -53 65 -105 108 -117 50 -13
48 -14 61 18 24 56 -20 109 -98 119 -39 5 -42 8 -62 62 -24 64 -49 172 -49
215 l0 30 31 -30 c18 -16 69 -78 114 -139 109 -146 160 -191 291 -258 70 -36
125 -72 154 -102 42 -43 43 -45 19 -45 -60 0 -147 -32 -219 -82 -41 -28 -92
-63 -113 -77 l-38 -25 53 -19 c76 -26 192 -32 251 -14 l48 15 -8 -31 c-4 -18
-8 -72 -8 -121 l0 -89 -370 7 c-203 4 -403 11 -443 14 l-73 7 34 18 c37 20 75
78 87 133 4 19 6 34 4 34 -3 0 -28 -17 -57 -39 -29 -21 -67 -46 -85 -56 -47
-23 -156 -45 -227 -45 -63 0 -193 24 -207 38 -5 5 -1 28 8 53 13 35 16 70 13
164 -8 260 -5 277 75 537 19 65 39 146 44 180 6 54 10 63 27 61 34 -3 200 29
207 41 4 6 13 36 19 66 6 30 16 61 21 68 6 7 34 12 67 12 77 0 84 7 76 66 -22
153 -56 273 -167 587 -45 125 -79 229 -77 230 2 2 27 20 56 41 59 42 122 129
152 212 21 55 44 174 56 290 7 60 8 62 47 80 51 23 98 66 98 91 0 11 -22 31
-59 55 -75 46 -88 66 -101 156 -18 131 -55 175 -230 280 -139 83 -170 109
-150 123 9 6 40 8 72 5 64 -6 89 -1 82 18 -2 6 7 23 21 36 32 30 32 67 -2 102
-18 19 -24 31 -17 38 7 7 29 -1 69 -25 82 -49 185 -74 185 -44 0 18 -53 62
-111 93 -30 16 -68 39 -85 52 l-31 23 30 61 c57 114 49 258 -21 379 -59 104
-176 196 -294 232 -91 28 -218 23 -295 -10 -64 -28 -59 -31 -196 98 -87 82
-141 120 -154 107 -5 -5 33 -63 114 -173 59 -81 55 -94 -11 -33 -29 27 -47 37
-51 30 -4 -7 2 -18 14 -26 19 -13 51 -63 51 -79 0 -14 -24 -2 -60 31 -50 46
-62 38 -25 -16 30 -43 28 -68 -3 -30 -20 24 -42 20 -42 -7 0 -9 7 -25 17 -35
24 -27 -1 -22 -36 8 -35 29 -57 25 -40 -8 6 -11 35 -46 64 -78 57 -62 72 -103
60 -159 -8 -40 -26 -39 -49 0 l-19 32 -13 -24 c-19 -33 -18 -35 21 -58 45 -26
47 -56 5 -65 -38 -7 -48 -30 -28 -65 36 -60 30 -140 -12 -194 -26 -32 -25 -49
2 -97 13 -21 20 -41 17 -44 -3 -4 -30 -2 -59 4 -29 5 -86 10 -126 10 l-73 0
-47 73 c-65 100 -127 179 -209 267 -58 61 -74 86 -89 135 -40 131 -139 285
-207 320 -15 8 -30 15 -34 15 -14 0 -2 -60 21 -100 31 -53 47 -110 31 -110 -6
0 -28 12 -49 26 -21 15 -41 24 -44 21 -15 -14 28 -101 99 -201 83 -117 98
-146 152 -291 18 -49 47 -121 65 -159 17 -37 34 -90 37 -116 5 -41 12 -53 50
-85 24 -20 54 -58 66 -83 21 -43 27 -48 113 -82 138 -55 146 -62 166 -162 19
-89 58 -192 102 -268 14 -25 26 -48 26 -52 0 -3 -23 -23 -51 -43 -28 -20 -89
-73 -136 -118 -223 -213 -375 -478 -487 -849 -34 -111 -96 -389 -96 -427 0
-14 15 -23 63 -36 134 -37 187 -78 187 -147 0 -16 3 -28 8 -28 36 0 201 -23
257 -35 l71 -15 12 -148 c6 -81 25 -212 42 -292 48 -225 51 -197 -29 -260
-144 -113 -246 -150 -359 -129 -92 17 -95 20 -71 78 25 59 71 116 110 136 28
15 29 15 43 -19 25 -59 94 -76 135 -33 18 20 20 28 11 52 -6 15 -20 41 -31 56
-30 42 -95 41 -182 -5 l-65 -33 -6 50 c-4 37 -18 69 -50 118 -25 37 -48 78
-51 92 -6 23 -3 24 75 40 92 18 151 51 175 97 13 26 13 30 1 30 -8 0 -65 16
-128 36 -90 28 -124 35 -165 31 l-51 -5 -7 51 c-4 29 -15 71 -26 95 -20 47
-136 175 -150 166 -5 -3 -9 -18 -9 -33 0 -27 -38 -151 -46 -151 -2 0 -21 12
-42 27 -21 16 -78 44 -127 63 -67 27 -103 49 -152 93 -58 52 -89 67 -106 51
-3 -3 11 -31 32 -63 21 -31 60 -98 87 -149 54 -103 98 -160 155 -202 l37 -27
-33 -12 c-19 -6 -54 -35 -79 -62 -52 -58 -74 -118 -57 -156 l11 -24 28 21 c51
38 188 45 249 12 33 -18 45 -69 37 -156 l-7 -76 32 0 c90 0 183 113 198 240 5
47 7 50 23 35 10 -9 31 -44 46 -78 25 -55 29 -74 29 -162 0 -73 -5 -113 -18
-147 -10 -27 -21 -48 -24 -48 -7 0 -558 78 -600 86 -19 3 -33 11 -33 19 0 22
-35 49 -90 69 -64 23 -161 126 -207 218 -65 131 -78 200 -77 418 0 155 5 223
23 330 13 74 27 141 31 149 4 9 58 26 126 42 66 15 144 37 175 48 66 25 130
77 153 124 15 32 20 35 91 46 42 7 101 26 135 43 60 29 61 31 53 62 -4 17 -8
51 -8 75 0 40 3 45 28 52 40 11 57 28 57 56 0 14 -85 280 -190 591 -212 636
-255 772 -334 1062 -46 166 -61 208 -86 236 -21 24 -30 45 -30 69 0 19 4 35 9
35 5 0 33 -11 62 -24 30 -14 85 -30 124 -36 38 -6 76 -16 84 -23 8 -7 45 -54
83 -105 63 -84 121 -138 139 -127 3 3 9 18 12 35 9 42 24 37 32 -10 9 -50 48
-100 80 -100 19 0 25 7 30 33 5 26 -6 62 -50 171 -30 76 -63 151 -71 165 -23
39 -70 67 -182 110 -135 52 -174 75 -292 173 -94 77 -101 85 -96 112 3 16 6
38 6 50 1 49 14 52 87 18 219 -101 430 -46 639 166 94 95 254 318 254 353 0 7
-12 30 -26 50 -27 40 -25 59 7 59 16 0 19 -7 19 -46 0 -58 16 -55 50 9 26 50
40 57 60 32 12 -15 11 -49 -6 -152 -8 -50 6 -73 45 -73 l26 0 0 152 c0 130 3
158 19 188 32 60 65 89 113 96 45 7 77 28 70 48 -2 6 -35 28 -73 49 -110 60
-110 60 -91 159 19 101 37 146 79 194 30 34 32 35 39 16 5 -12 19 -28 33 -37
20 -13 29 -14 48 -5 23 12 57 49 58 61 0 4 -38 39 -85 79 -109 92 -139 134
-133 192 3 24 8 50 12 59 10 22 -61 51 -103 43 -29 -6 -30 -8 -30 -61 1 -69
-12 -88 -115 -168 -106 -83 -111 -91 -91 -160 17 -56 43 -82 71 -71 8 3 14 16
14 30 0 36 17 76 33 76 17 0 60 -46 83 -90 15 -27 19 -57 19 -131 0 -100 -10
-129 -44 -129 -43 0 -106 -57 -155 -141 -28 -46 -65 -100 -84 -120 -33 -36
-34 -37 -17 -63 9 -14 15 -30 13 -36 -2 -6 -40 -25 -84 -43 -77 -31 -127 -63
-342 -212 -51 -36 -96 -65 -100 -64 -4 0 -40 37 -79 80 -58 63 -73 86 -73 111
0 28 -2 30 -27 24 -79 -20 -77 -20 -117 28 -38 47 -126 106 -159 106 -9 0 -32
14 -50 31 -39 38 -81 60 -172 88 -38 13 -80 28 -95 36 -29 15 -67 55 -54 56 5
1 56 11 114 23 l105 21 -2 40 c-5 81 7 125 44 166 20 22 50 47 65 55 21 11 27
19 20 27 -5 7 -17 38 -26 71 l-17 59 36 37 c37 38 38 60 1 35 -28 -20 -60 -20
-52 1 3 9 9 34 12 57 13 98 9 94 164 142 93 29 209 86 236 116 16 18 16 19
-13 19 -60 0 -264 40 -314 61 -48 21 -89 59 -89 84 0 7 11 29 25 49 l25 36
-36 55 c-19 30 -40 55 -47 55 -7 0 -29 -11 -49 -25 -20 -14 -48 -25 -61 -25
-20 0 -25 8 -36 50 -17 65 -61 124 -113 151 -54 28 -173 34 -273 14z m3097
-4162 c-6 -53 -16 -101 -21 -106 -14 -14 -47 16 -56 51 -4 15 -13 35 -22 44
-19 21 -7 45 51 102 37 37 42 39 50 23 6 -11 5 -54 -2 -114z m1560 -380 c165
-57 324 -178 460 -347 87 -109 185 -262 175 -273 -4 -3 -26 0 -51 7 -78 22
-76 8 15 -86 48 -49 94 -104 103 -121 18 -37 31 -44 21 -13 -5 14 -2 20 9 20
23 0 20 -46 -9 -136 -14 -42 -25 -85 -25 -96 0 -16 -11 -8 -46 31 -56 62 -89
68 -116 20 -14 -24 -22 -29 -39 -24 -16 5 -19 4 -14 -5 5 -8 22 -10 46 -7 34
4 41 1 62 -27 30 -39 62 -102 71 -140 13 -51 8 -165 -9 -224 -47 -162 -207
-385 -398 -555 l-77 -69 -38 33 c-39 34 -72 77 -72 95 0 7 13 9 38 4 77 -13
145 16 193 84 42 57 39 63 -29 62 -51 -1 -69 5 -151 48 -90 46 -97 48 -161 44
-58 -3 -66 -1 -58 12 5 8 19 42 31 75 l23 60 80 8 c43 5 102 10 129 10 l50 2
5 -70 5 -70 73 0 c85 0 108 16 97 70 -9 47 -35 65 -111 77 -124 19 -147 27
-133 44 21 25 43 33 145 49 160 26 197 51 174 120 -10 32 -15 35 -49 35 -20 0
-42 5 -48 11 -7 7 -36 -14 -99 -72 -88 -81 -153 -120 -223 -133 -32 -6 -30 -3
56 88 85 89 193 234 193 260 0 25 -32 55 -65 62 -70 13 -141 -42 -130 -100 7
-33 41 -70 56 -60 21 12 6 -15 -44 -81 -35 -47 -70 -81 -107 -102 -30 -18 -58
-33 -63 -33 -5 0 -7 17 -4 38 3 20 0 64 -6 96 l-12 59 -39 -65 c-21 -36 -70
-100 -110 -143 l-71 -78 -55 13 c-193 45 -346 127 -484 262 -55 53 -63 64 -36
49 49 -28 96 -44 315 -108 105 -30 198 -57 208 -60 31 -9 18 17 -19 39 l-36
21 54 17 c109 33 184 107 278 270 68 118 127 197 177 235 56 43 71 45 44 6
-12 -16 -21 -37 -21 -47 0 -24 29 -54 53 -54 31 0 82 37 102 74 18 33 18 34
-1 67 -14 23 -33 39 -61 49 -37 12 -48 12 -95 -3 -56 -18 -113 -66 -141 -122
l-15 -30 -17 60 c-19 68 -49 162 -59 186 -6 14 2 18 41 23 26 4 97 30 157 58
61 28 127 53 148 56 21 2 38 7 38 11 0 3 -22 14 -48 23 -26 9 -87 31 -137 48
-77 28 -98 32 -152 27 l-63 -6 0 30 c0 39 -20 85 -74 172 -25 40 -48 84 -51
100 -4 15 -11 27 -16 27 -13 0 -101 -112 -120 -155 -10 -22 -19 -57 -19 -77 0
-40 -10 -48 -30 -23 -27 33 -117 48 -257 43 l-132 -5 13 26 c8 14 31 43 52 64
40 39 141 103 150 94 7 -6 -22 -63 -36 -72 -5 -3 -10 -11 -10 -16 0 -6 44 21
97 58 139 97 196 115 348 110 101 -3 134 -9 207 -34z m-839 -306 c18 -8 61
-36 97 -64 71 -54 110 -77 154 -93 l30 -11 -30 -18 c-51 -31 -101 -97 -145
-188 -23 -48 -55 -115 -71 -147 l-30 -59 54 30 c153 86 210 114 280 137 42 14
82 26 90 26 10 0 13 -22 14 -88 1 -89 28 -188 49 -181 21 8 145 154 164 193
11 23 24 66 29 96 l8 55 19 -50 c26 -66 26 -189 1 -263 -18 -54 -41 -76 -56
-52 -5 8 -16 -7 -33 -43 -31 -68 -88 -132 -141 -159 -25 -13 -68 -23 -111 -26
-68 -5 -70 -4 -54 14 20 23 72 124 67 130 -2 2 -28 -16 -57 -40 -90 -74 -179
-84 -287 -31 -99 48 -177 164 -204 303 -19 94 -8 249 23 347 23 69 89 195 103
195 3 0 19 -6 37 -13z m-1211 -829 c11 -9 17 -37 21 -93 3 -44 20 -143 37
-220 77 -339 47 -436 -175 -562 -101 -57 -111 -53 -70 25 24 47 26 54 16 108
-14 73 -14 219 -1 304 6 36 27 145 47 242 33 163 38 177 60 183 12 3 23 10 23
15 0 14 23 12 42 -2z m-2247 -178 c9 -41 25 -103 35 -136 19 -61 19 -62 -1
-114 -25 -66 -35 -163 -21 -212 12 -44 21 -41 -110 -42 l-98 -1 0 57 c0 72 11
125 66 316 24 84 46 171 50 195 10 72 13 75 40 42 14 -18 30 -59 39 -105z
m3610 -97 c99 -57 241 -127 303 -148 l52 -19 0 -44 c0 -43 -1 -44 -27 -38 -94
21 -257 130 -408 272 -65 60 -67 61 80 -23z m-4025 -464 c0 -6 -16 -30 -35
-53 -26 -32 -35 -52 -35 -81 0 -31 -3 -36 -17 -30 -141 57 -320 89 -632 111
-51 4 -87 10 -80 14 25 14 124 31 225 39 156 13 574 13 574 0z m460 -38 c80
-11 354 -43 610 -71 616 -67 561 -59 551 -79 -15 -26 -92 -111 -102 -111 -5 0
-6 17 -3 39 4 24 2 41 -5 45 -6 4 -11 2 -11 -3 0 -6 -17 -29 -37 -52 -42 -46
-119 -88 -208 -113 -33 -10 -68 -19 -77 -22 -32 -9 -20 23 23 63 37 35 77 93
64 93 -3 0 -51 -23 -108 -51 -173 -87 -286 -116 -406 -103 -62 6 -66 8 -118
65 -30 32 -89 81 -131 110 -112 76 -160 117 -193 162 -33 46 -36 61 -11 53 9
-3 82 -14 162 -25z"/>
<path d="M7454 2781 c-52 -32 -89 -88 -88 -135 1 -48 72 -233 107 -280 19 -25
25 -47 29 -112 6 -84 43 -189 76 -216 28 -24 7 100 -38 228 -94 266 -110 359
-74 442 16 36 17 36 23 12 6 -20 14 -26 44 -28 35 -3 37 -2 37 26 0 37 -35 82
-63 82 -12 0 -36 -9 -53 -19z"/>
<path d="M745 480 c-11 -11 -45 -32 -75 -47 l-55 -28 -3 -53 c-2 -41 2 -61 19
-89 21 -34 24 -35 63 -28 111 19 98 22 128 -39 l28 -56 -29 -15 c-37 -19 -61
-43 -61 -60 0 -12 7 -12 45 -1 l45 14 0 -28 c0 -35 22 -54 55 -46 52 13 58 86
7 86 -20 0 -10 9 47 38 41 20 76 43 78 49 6 18 -33 25 -74 14 -68 -19 -77 -16
-106 44 l-26 54 42 30 c62 42 71 55 56 80 -41 65 -150 48 -229 -35 l-35 -36
36 6 c38 7 68 -12 54 -34 -11 -18 -71 -11 -90 10 -26 29 -12 60 45 100 55 37
73 59 61 78 -5 8 -13 6 -26 -8z"/>
</g>
</svg>
