<?xml version="1.0" standalone="no"?>
<!DOCTYPE svg PUBLIC "-//W3C//DTD SVG 20010904//EN"
 "http://www.w3.org/TR/2001/REC-SVG-20010904/DTD/svg10.dtd">
<svg version="1.0" xmlns="http://www.w3.org/2000/svg"
 width="128.000000pt" height="128.000000pt" viewBox="0 0 128.000000 128.000000"
 preserveAspectRatio="xMidYMid meet">
<metadata>
Created by potrace 1.13, written by Peter Selinger 2001-2015
</metadata>
<g transform="translate(0.000000,128.000000) scale(0.100000,-0.100000)"
fill="#000000" stroke="none">
<path d="M965 1130 c-3 -5 -30 -10 -60 -10 -55 0 -74 -10 -96 -51 -13 -25 -4
-39 25 -39 20 0 25 -6 28 -36 4 -34 2 -37 -38 -57 -32 -15 -47 -31 -60 -61
-50 -119 -67 -153 -86 -173 -25 -26 -35 -28 -90 -11 -33 10 -45 21 -70 65 -21
38 -40 58 -64 68 -42 17 -51 38 -35 80 13 38 0 85 -24 85 -8 0 -15 5 -15 10 0
6 -10 2 -21 -9 -17 -16 -20 -27 -15 -58 12 -76 12 -76 -30 -105 -30 -20 -48
-44 -68 -88 -15 -34 -33 -60 -42 -60 -8 0 -17 -8 -21 -17 -3 -10 -24 -35 -47
-55 -49 -44 -43 -62 9 -23 19 15 50 35 68 44 18 9 43 33 57 55 l25 38 12 -28
c18 -43 16 -49 -24 -75 -42 -27 -98 -120 -108 -181 -6 -31 -12 -39 -41 -48
-67 -22 -124 -91 -124 -150 0 -20 3 -20 630 -20 627 0 630 0 630 20 0 39 -28
87 -68 120 l-40 32 5 112 c4 86 10 118 26 144 l20 33 -31 32 c-16 18 -55 70
-87 117 -38 57 -70 93 -98 111 -36 22 -42 30 -42 60 0 28 4 35 23 37 26 4 28
14 6 47 -13 20 -14 28 -4 40 8 9 9 15 2 15 -6 0 -14 -4 -17 -10z m104 -369
c28 -38 51 -76 51 -85 0 -9 9 -24 20 -33 22 -19 25 -62 13 -185 -6 -65 -7 -68
-33 -68 -26 0 -27 3 -48 108 -12 59 -33 136 -47 172 -20 51 -24 74 -19 112 4
26 8 48 9 48 2 0 26 -31 54 -69z m-237 -2 c11 -38 8 -56 -28 -203 l-40 -161
-82 -3 -81 -3 -7 28 c-24 109 -60 175 -111 208 -35 22 -43 58 -20 89 13 17 16
15 52 -28 24 -30 43 -45 53 -41 8 3 21 0 28 -6 7 -6 18 -8 24 -4 5 3 10 -2 10
-13 0 -15 7 -19 33 -18 43 2 77 22 77 46 0 23 61 150 72 150 4 0 13 -19 20
-41z"/>
</g>
</svg>
