<?xml version="1.0" standalone="no"?>
<!DOCTYPE svg PUBLIC "-//W3C//DTD SVG 20010904//EN"
 "http://www.w3.org/TR/2001/REC-SVG-20010904/DTD/svg10.dtd">
<svg version="1.0" xmlns="http://www.w3.org/2000/svg"
 width="220.000000pt" height="220.000000pt" viewBox="0 0 220.000000 220.000000"
 preserveAspectRatio="xMidYMid meet">
<metadata>
Created by potrace 1.13, written by Peter Selinger 2001-2015
</metadata>
<g transform="translate(0.000000,220.000000) scale(0.100000,-0.100000)"
fill="#000000" stroke="none">
<path d="M325 2018 c-21 -51 -37 -184 -30 -241 4 -29 14 -83 22 -122 15 -70
16 -71 124 -180 l108 -110 11 -70 c22 -155 6 -327 -38 -409 -22 -40 -43 -60
-109 -102 l-81 -53 -16 -70 c-9 -38 -16 -84 -16 -100 0 -21 -10 -41 -35 -66
-35 -34 -35 -35 -21 -69 14 -33 14 -33 -20 -49 -60 -29 -56 -99 11 -190 l35
-47 623 0 623 0 30 32 c59 63 74 90 74 129 0 29 -6 42 -26 58 -15 12 -33 21
-40 21 -18 0 -18 5 2 35 20 31 11 61 -25 80 -25 12 -29 21 -33 72 -3 32 -13
83 -22 113 -16 51 -21 57 -78 90 -34 20 -75 54 -94 79 -31 40 -32 45 -20 70 8
14 30 42 50 60 20 19 36 40 36 46 0 16 106 63 155 69 22 3 50 8 62 11 17 6 22
2 25 -17 2 -18 9 -23 29 -21 24 1 27 -3 38 -54 7 -30 26 -93 42 -141 34 -101
36 -135 8 -222 -29 -95 -30 -221 -1 -282 13 -25 32 -54 44 -64 21 -19 21 -19
14 6 -28 97 -16 146 74 295 57 95 74 144 66 189 -4 18 -42 89 -85 157 -95 150
-122 204 -116 221 3 7 23 23 45 36 44 25 48 36 24 70 -20 28 -57 28 -84 0
l-21 -23 -29 35 c-16 19 -32 44 -36 55 -3 11 -12 27 -19 35 -31 36 -89 305
-110 507 -3 35 -13 85 -21 113 l-15 50 -125 0 -125 0 -21 -46 c-20 -46 -21
-91 -2 -151 6 -22 4 -23 -68 -23 l-74 0 0 83 c0 45 -5 94 -12 110 l-12 27
-125 0 -126 0 -16 -37 c-14 -34 -15 -107 -2 -163 3 -12 -10 -16 -66 -18 l-71
-3 1 83 c0 64 -4 90 -18 111 -17 27 -18 27 -138 27 l-120 0 -14 -32z m219 -50
c10 -22 12 -56 8 -110 l-5 -78 132 0 132 0 -3 94 c-3 118 2 126 87 126 85 0
91 -8 87 -127 l-3 -94 133 3 133 3 3 44 c2 23 -1 55 -6 70 -7 19 -5 37 5 64
l15 37 70 0 69 0 15 -35 c23 -57 28 -170 10 -254 l-16 -75 -114 -115 c-106
-108 -115 -120 -123 -166 -12 -73 -8 -341 7 -410 21 -100 96 -197 189 -245 45
-23 55 -46 73 -166 9 -65 16 -85 30 -90 14 -4 18 -16 18 -58 0 -50 2 -54 30
-66 17 -7 30 -17 30 -22 0 -5 -21 -31 -46 -58 l-47 -50 -568 0 -569 0 -36 55
c-37 59 -37 71 2 85 21 8 24 16 24 59 0 40 4 52 20 61 11 6 20 21 20 33 0 12
7 61 16 110 l16 87 67 39 c147 87 171 149 170 440 -1 256 4 243 -128 375
l-111 112 -16 89 c-13 73 -14 102 -5 153 21 113 20 112 101 112 70 0 71 0 84
-32z m981 -441 c7 -55 59 -222 76 -243 7 -8 10 -16 8 -17 -54 -38 -111 -53
-128 -33 -5 6 -12 25 -16 41 -15 70 -45 125 -67 125 -6 0 -38 -28 -73 -61 -74
-71 -102 -75 -92 -12 5 29 28 58 120 152 112 114 114 117 127 181 l13 65 13
-75 c8 -41 16 -97 19 -123z m-141 -233 c3 -9 6 -29 6 -45 0 -17 7 -43 14 -58
14 -27 14 -29 -20 -62 -19 -18 -53 -64 -75 -101 -23 -37 -47 -68 -54 -68 -16
0 -31 65 -40 176 -7 74 -6 82 11 87 11 4 46 24 79 46 69 46 71 46 79 25z"/>
</g>
</svg>
