<?xml version="1.0" standalone="no"?>
<!DOCTYPE svg PUBLIC "-//W3C//DTD SVG 20010904//EN"
 "http://www.w3.org/TR/2001/REC-SVG-20010904/DTD/svg10.dtd">
<svg version="1.0" xmlns="http://www.w3.org/2000/svg"
 width="512.000000pt" height="512.000000pt" viewBox="0 0 512.000000 512.000000"
 preserveAspectRatio="xMidYMid meet">
<metadata>
Created by potrace 1.13, written by Peter Selinger 2001-2015
</metadata>
<g transform="translate(0.000000,512.000000) scale(0.100000,-0.100000)"
fill="#000000" stroke="none">
<path d="M855 4891 c-11 -5 -27 -17 -36 -27 -28 -31 -609 -1252 -609 -1279 0
-13 11 -37 24 -52 l24 -28 599 -3 c410 -2 610 0 635 8 41 12 61 39 60 81 -1
30 -584 1254 -610 1281 -21 21 -61 30 -87 19z"/>
<path d="M4205 4891 c-12 -5 -26 -15 -32 -22 -26 -33 -604 -1254 -605 -1278
-1 -42 19 -69 60 -81 25 -8 225 -10 635 -8 l599 3 24 28 c13 15 24 39 24 52 0
31 -585 1253 -613 1282 -26 26 -64 36 -92 24z"/>
<path d="M54 3230 c-52 -21 -54 -33 -54 -343 0 -327 2 -338 68 -356 20 -6 70
-11 110 -11 l72 0 0 -1150 0 -1150 980 0 980 0 0 228 c0 125 5 256 10 291 20
122 87 211 198 264 54 25 76 30 142 30 66 0 88 -5 142 -30 111 -53 178 -142
198 -264 5 -35 10 -166 10 -291 l0 -228 980 0 980 0 0 1150 0 1150 73 0 c39 0
89 5 109 11 66 18 68 29 68 358 l0 290 -24 28 c-24 28 -24 28 -171 31 -157 4
-196 -4 -218 -42 -8 -13 -14 -88 -17 -206 l-5 -185 -109 -3 c-71 -2 -113 1
-122 9 -11 9 -14 49 -14 190 0 174 -1 179 -24 206 -24 28 -25 28 -163 31 -152
4 -205 -6 -225 -41 -9 -14 -15 -85 -18 -207 l-5 -185 -99 -3 c-64 -2 -103 1
-112 9 -11 9 -14 49 -14 190 0 174 -1 179 -24 206 -24 28 -25 28 -163 31 -79
2 -153 -1 -174 -7 -62 -19 -64 -29 -64 -357 l0 -294 27 -27 c26 -25 35 -28
128 -31 l100 -4 -2 -332 -3 -331 -72 -3 -73 -3 0 150 c0 144 -1 151 -24 178
-24 28 -25 28 -168 31 -82 2 -158 -1 -178 -7 -57 -17 -64 -38 -68 -203 l-4
-148 -119 0 -119 0 0 134 c0 219 -7 226 -220 226 -214 0 -220 -6 -220 -220 l0
-140 -119 0 -119 0 -4 148 c-4 165 -11 186 -68 203 -20 6 -96 9 -178 7 -143
-3 -144 -3 -168 -31 -23 -27 -24 -34 -24 -178 l0 -150 -72 3 -73 3 -3 331 -2
332 100 4 c93 3 102 6 128 31 l27 27 0 294 c0 328 -2 338 -64 357 -21 6 -95 9
-174 7 -138 -3 -139 -3 -163 -31 -23 -27 -24 -32 -24 -206 0 -141 -3 -181 -14
-190 -9 -8 -51 -11 -122 -9 l-109 3 -5 185 c-3 122 -9 192 -18 207 -20 35 -73
45 -225 41 -138 -3 -139 -3 -163 -31 -23 -27 -24 -32 -24 -206 0 -141 -3 -181
-14 -190 -9 -8 -48 -11 -112 -9 l-99 3 -5 185 c-3 102 -9 193 -14 203 -18 38
-58 47 -203 46 -76 0 -148 -4 -159 -9z"/>
</g>
</svg>
