<?xml version="1.0" standalone="no"?>
<!DOCTYPE svg PUBLIC "-//W3C//DTD SVG 20010904//EN"
 "http://www.w3.org/TR/2001/REC-SVG-20010904/DTD/svg10.dtd">
<svg version="1.0" xmlns="http://www.w3.org/2000/svg"
 width="300.000000pt" height="285.000000pt" viewBox="0 0 300.000000 285.000000"
 preserveAspectRatio="xMidYMid meet">
<metadata>
Created by potrace 1.13, written by Peter Selinger 2001-2015
</metadata>
<g transform="translate(0.000000,285.000000) scale(0.100000,-0.100000)"
fill="#000000" stroke="none">
<path d="M1840 2785 c0 -75 19 -64 -165 -96 -68 -12 -128 -28 -138 -36 -33
-30 -38 -87 -37 -405 l2 -311 -131 -131 -130 -131 86 -94 c48 -51 107 -106
132 -121 l45 -28 70 54 c38 30 78 54 88 54 10 0 46 -20 79 -44 54 -39 79 -71
196 -246 l134 -201 197 190 c346 333 390 380 412 440 19 53 19 55 1 121 -39
138 -93 231 -205 347 -41 43 -102 96 -135 118 l-60 40 -3 203 c-3 198 -4 204
-26 222 -42 34 -199 36 -314 4 -16 -5 -18 2 -18 55 l0 61 -40 0 -40 0 0 -65z
m292 -249 l3 -165 -62 6 c-100 9 -128 -7 -283 -162 -74 -74 -137 -135 -140
-135 -11 0 -12 457 0 498 13 49 24 56 120 71 54 9 66 8 73 -4 4 -9 22 -15 42
-15 27 0 34 4 37 22 3 20 12 24 73 34 39 6 84 12 102 13 l32 1 3 -164z m-131
-262 c11 -14 -17 -45 -220 -242 -283 -275 -278 -270 -298 -249 -14 14 -12 19
23 55 81 84 467 452 474 452 4 0 13 -7 21 -16z m137 -35 c2 -10 -93 -109 -248
-259 -226 -218 -253 -241 -267 -227 -10 9 -12 20 -7 29 22 35 491 478 504 475
8 -1 16 -9 18 -18z m2 -148 c0 -25 -30 -57 -196 -216 -184 -177 -197 -187
-212 -170 -16 16 -5 29 187 216 113 109 208 199 213 199 4 0 8 -13 8 -29z
m368 -141 c1 -8 -49 -67 -113 -130 l-115 -115 0 37 c0 33 9 46 98 132 92 91
123 109 130 76z m-368 -28 c0 -24 -25 -53 -140 -165 -76 -76 -146 -137 -155
-137 -9 0 -18 7 -22 16 -4 12 35 57 148 165 85 81 157 148 162 149 4 0 7 -13
7 -28z m421 -78 c12 -15 -3 -33 -131 -155 -145 -137 -145 -137 -148 -106 -4
29 7 42 123 155 70 67 130 122 135 122 4 0 14 -7 21 -16z m-421 -76 c0 -29
-13 -46 -102 -130 -57 -54 -107 -96 -113 -95 -5 2 -12 12 -14 23 -2 13 29 50
105 125 60 59 112 108 117 108 4 1 7 -14 7 -31z m468 -59 c1 -9 -97 -112 -243
-253 -237 -229 -280 -262 -280 -214 0 23 485 489 505 486 8 -2 16 -10 18 -19z"/>
<path d="M545 1789 c-126 -10 -250 -18 -275 -19 -63 -2 -35 -12 125 -45 125
-26 138 -32 335 -135 l205 -107 205 10 c113 5 207 11 208 12 2 2 -44 53 -103
114 l-107 110 -169 40 c-93 23 -175 40 -182 40 -6 -1 -115 -10 -242 -20z"/>
<path d="M1596 1459 c-43 -32 -64 -54 -59 -62 4 -7 92 -140 195 -297 l188
-284 151 -83 c110 -60 172 -102 230 -154 43 -39 79 -69 79 -65 0 3 -80 126
-178 273 -98 147 -233 351 -300 453 -106 162 -129 191 -181 227 l-59 42 -66
-50z"/>
<path d="M1067 1453 c-15 -15 -6 -115 16 -176 50 -137 226 -345 361 -426 131
-78 273 -103 355 -62 58 30 66 44 45 81 -21 35 -30 38 -37 11 -15 -58 -127
-72 -234 -29 -232 94 -453 364 -455 555 -1 48 -3 53 -23 53 -12 0 -25 -3 -28
-7z"/>
<path d="M690 1340 l-134 -7 -153 -78 c-84 -43 -153 -82 -153 -87 0 -4 44 -65
98 -135 54 -71 181 -238 282 -373 101 -135 188 -245 194 -245 6 0 72 37 146
83 115 70 154 100 253 200 l117 118 -183 264 -184 265 -74 1 c-41 1 -135 -2
-209 -6z"/>
<path d="M1426 729 c-3 -8 -32 -99 -65 -204 -33 -104 -85 -253 -115 -329 -31
-77 -54 -141 -53 -143 2 -1 57 -14 122 -28 111 -24 136 -25 334 -23 l214 3 39
139 39 139 -31 191 c-17 105 -35 202 -39 215 -8 27 -2 26 -206 35 -77 4 -161
9 -187 13 -36 4 -49 2 -52 -8z"/>
</g>
</svg>
