<?xml version="1.0" standalone="no"?>
<!DOCTYPE svg PUBLIC "-//W3C//DTD SVG 20010904//EN"
 "http://www.w3.org/TR/2001/REC-SVG-20010904/DTD/svg10.dtd">
<svg version="1.0" xmlns="http://www.w3.org/2000/svg"
 width="365.000000pt" height="310.000000pt" viewBox="0 0 365.000000 310.000000"
 preserveAspectRatio="xMidYMid meet">
<metadata>
Created by potrace 1.13, written by Peter Selinger 2001-2015
</metadata>
<g transform="translate(0.000000,310.000000) scale(0.100000,-0.100000)"
fill="#000000" stroke="none">
<path d="M1385 3052 c-54 -26 -399 -379 -444 -455 -51 -86 -78 -164 -91 -255
-6 -45 -22 -135 -35 -200 -14 -64 -30 -157 -35 -205 -12 -105 -4 -129 70 -210
66 -73 100 -125 100 -156 0 -23 -8 -30 -67 -55 -133 -56 -340 -169 -481 -263
-302 -199 -368 -312 -360 -619 3 -139 3 -141 41 -216 67 -135 196 -228 349
-250 151 -21 588 12 739 57 126 37 234 108 397 261 139 132 194 165 322 193
l45 10 120 -118 c196 -192 276 -249 622 -440 l202 -112 229 3 228 3 90 56
c100 64 167 136 184 201 7 23 10 85 8 137 -4 127 -23 166 -174 357 -65 83
-140 180 -165 215 -26 35 -135 158 -244 274 -211 225 -313 351 -369 456 l-35
67 39 6 c26 4 47 17 69 42 28 31 32 42 29 81 -5 78 -60 102 -228 103 l-95 0
-69 98 c-109 152 -270 356 -386 487 -129 147 -323 350 -370 388 -85 70 -168
90 -235 59z m216 -149 c160 -153 425 -459 629 -726 41 -54 92 -119 113 -145
20 -26 37 -52 37 -59 0 -22 -50 -28 -240 -28 -160 0 -192 3 -238 20 -77 28
-122 71 -180 172 -136 237 -226 516 -239 746 -5 95 -4 107 10 107 9 0 58 -39
108 -87z m1107 -953 c26 -24 27 -38 8 -66 -39 -55 -202 -78 -669 -96 -16 0
-37 8 -48 18 -20 21 -41 79 -31 88 3 3 78 6 166 6 144 0 179 4 326 34 197 41
219 42 248 16z m-795 -122 c34 -45 14 -71 -74 -98 -65 -19 -76 -20 -108 -8
-29 11 -37 20 -39 44 -3 32 -3 32 98 78 52 23 99 17 123 -16z m598 -74 c15 -7
57 -55 95 -106 99 -134 252 -313 403 -471 79 -82 131 -144 129 -154 -7 -34
-176 -67 -271 -52 -237 38 -474 196 -605 402 -20 32 -69 102 -108 156 -85 117
-94 132 -94 165 0 34 35 56 90 57 25 0 90 6 145 14 107 14 174 11 216 -11z
m-1118 -344 c71 -12 116 -25 129 -37 33 -29 90 -119 168 -262 40 -74 83 -152
97 -173 22 -32 24 -42 15 -68 -44 -124 -396 -466 -567 -550 -57 -28 -192 -66
-202 -57 -2 3 3 31 13 63 21 72 12 126 -42 260 -54 131 -63 172 -79 356 -8
103 -20 178 -29 196 -20 40 -68 79 -106 87 -31 7 -31 7 -13 27 48 53 250 166
320 178 58 10 153 3 296 -20z m-591 -269 c34 -13 46 -60 63 -243 13 -134 21
-173 51 -255 83 -226 90 -289 39 -343 -61 -64 -279 -86 -420 -43 -126 39 -238
122 -283 208 -20 39 -52 168 -52 210 0 51 34 147 70 200 88 127 230 239 337
264 51 12 166 13 195 2z"/>
<path d="M662 1070 c-28 -26 -28 -50 -1 -84 27 -34 60 -33 100 2 34 30 43 77
18 93 -27 17 -94 10 -117 -11z"/>
</g>
</svg>
