<?xml version="1.0" standalone="no"?>
<!DOCTYPE svg PUBLIC "-//W3C//DTD SVG 20010904//EN"
 "http://www.w3.org/TR/2001/REC-SVG-20010904/DTD/svg10.dtd">
<svg version="1.0" xmlns="http://www.w3.org/2000/svg"
 width="550.000000pt" height="326.000000pt" viewBox="0 0 550.000000 326.000000"
 preserveAspectRatio="xMidYMid meet">
<metadata>
Created by potrace 1.13, written by Peter Selinger 2001-2015
</metadata>
<g transform="translate(0.000000,326.000000) scale(0.100000,-0.100000)"
fill="#000000" stroke="none">
<path d="M3679 3211 c-283 -52 -594 -234 -823 -482 l-66 -71 6 -72 c4 -39 9
-98 13 -130 l6 -59 62 75 c34 41 106 120 160 175 54 55 110 116 125 135 16 21
52 48 85 65 32 15 81 43 108 62 129 88 313 149 405 136 150 -23 167 -110 69
-354 l-53 -133 29 -24 c28 -22 176 -104 189 -104 3 0 -4 19 -14 43 -34 75 -23
145 54 337 54 133 71 205 62 254 -9 49 -70 108 -132 130 -56 20 -217 29 -285
17z"/>
<path d="M2379 3146 c-64 -26 -89 -40 -254 -149 -219 -144 -292 -169 -505
-170 -119 -1 -151 3 -273 32 -237 57 -350 35 -399 -77 -39 -87 -12 -322 62
-544 128 -384 377 -693 714 -886 233 -134 401 -153 577 -65 170 85 304 281
392 573 54 178 71 305 71 520 0 400 -87 706 -217 769 -55 27 -98 26 -168 -3z
m71 -634 c64 -32 117 -69 109 -76 -2 -2 -47 1 -99 7 -52 6 -112 7 -133 3 -47
-9 -101 -56 -165 -143 -46 -63 -47 -64 -50 -35 -5 46 26 163 54 205 40 60 77
79 154 75 49 -3 81 -12 130 -36z m-886 -134 c50 -15 129 -92 169 -167 16 -28
26 -51 22 -51 -3 0 -24 12 -48 27 -65 41 -164 83 -195 83 -43 0 -88 -18 -170
-68 -40 -24 -76 -42 -79 -39 -9 10 68 116 117 160 68 62 114 75 184 55z m934
-396 c-23 -192 -124 -335 -296 -420 -74 -35 -82 -37 -177 -37 -172 1 -299 58
-444 203 -51 51 -91 95 -88 98 3 3 31 1 63 -5 132 -25 429 -6 571 35 97 28
234 95 313 152 30 22 58 41 61 41 3 1 2 -30 -3 -67z"/>
<path d="M3276 2816 c-55 -20 -100 -68 -145 -155 -193 -371 -235 -854 -110
-1241 59 -182 172 -383 261 -466 169 -155 385 -172 645 -49 144 68 264 155
404 295 147 146 244 284 338 480 93 195 132 316 138 430 4 85 2 100 -19 140
-17 33 -35 51 -73 70 -49 25 -54 25 -340 31 -266 5 -295 7 -354 28 -152 53
-246 116 -412 276 -162 157 -240 194 -333 161z m-5 -661 c86 -44 233 -78 336
-79 l93 -1 -48 -48 c-88 -90 -174 -127 -248 -107 -72 20 -156 126 -189 238 -8
28 -5 28 56 -3z m818 -267 c93 -86 214 -157 346 -203 16 -6 9 -12 -40 -35
-225 -105 -357 -35 -372 199 -3 50 -3 91 2 91 4 0 33 -23 64 -52z m-436 -293
c166 -35 270 -134 321 -305 17 -55 34 -230 23 -230 -3 0 -49 29 -102 65 -52
36 -127 81 -165 100 -167 84 -384 155 -519 171 l-62 7 28 30 c48 51 141 115
201 137 109 41 172 47 275 25z"/>
<path d="M4786 2713 c-45 -95 -197 -266 -262 -295 -40 -19 -27 -28 39 -28 34
0 89 -7 122 -15 l59 -16 72 72 c106 106 105 98 45 217 -28 56 -53 102 -54 102
-2 0 -11 -17 -21 -37z"/>
<path d="M950 1979 c-291 -77 -557 -201 -713 -333 -58 -49 -136 -144 -166
-203 -51 -101 -34 -192 46 -263 121 -106 356 -113 651 -19 129 42 228 59 336
59 144 0 238 -38 297 -122 34 -47 33 -134 -3 -203 -29 -56 -90 -122 -153 -165
-49 -34 -187 -103 -237 -119 -21 -7 -38 -16 -38 -19 0 -4 28 -27 62 -52 34
-25 78 -57 98 -72 l37 -27 109 70 c124 81 254 206 296 285 46 86 62 165 48
240 -31 161 -170 300 -338 335 -80 16 -263 5 -397 -25 -325 -73 -350 -77 -458
-77 -123 0 -175 17 -191 62 -13 37 -2 70 43 127 126 159 424 298 787 367 43 9
79 17 81 19 3 2 -81 154 -89 161 -2 1 -50 -10 -108 -26z"/>
<path d="M2759 1898 c-9 -7 -29 -53 -44 -102 -38 -120 -122 -285 -190 -374
l-56 -73 26 -57 c47 -103 156 -253 272 -375 141 -147 184 -210 191 -275 7 -73
-17 -118 -74 -144 -42 -18 -54 -19 -111 -10 -127 21 -283 113 -403 239 -42 43
-85 91 -96 107 l-21 29 -36 -92 c-21 -50 -37 -98 -37 -107 0 -22 95 -119 166
-170 140 -100 347 -174 486 -174 130 0 233 62 289 175 62 126 29 235 -125 425
-47 58 -125 152 -172 210 -49 61 -103 140 -127 188 -36 73 -41 92 -41 151 0
129 84 225 208 238 44 5 56 9 52 20 -4 8 -6 53 -6 99 l0 84 -68 0 c-40 0 -75
-5 -83 -12z"/>
<path d="M4557 1402 c-26 -37 -47 -71 -47 -75 0 -4 9 -7 19 -7 38 0 217 -52
278 -81 73 -35 103 -69 103 -115 0 -55 -53 -103 -193 -175 -243 -127 -394
-247 -450 -359 -116 -233 153 -478 592 -541 162 -23 382 6 486 64 38 21 41 27
62 107 32 126 34 122 -54 78 -43 -21 -105 -45 -138 -54 -90 -24 -291 -29 -398
-11 -144 25 -283 102 -327 179 -76 135 19 251 335 408 179 89 272 154 315 219
73 108 13 204 -191 307 -72 36 -312 124 -338 124 -4 0 -29 -30 -54 -68z"/>
</g>
</svg>
