<?xml version="1.0" standalone="no"?>
<!DOCTYPE svg PUBLIC "-//W3C//DTD SVG 20010904//EN"
 "http://www.w3.org/TR/2001/REC-SVG-20010904/DTD/svg10.dtd">
<svg version="1.0" xmlns="http://www.w3.org/2000/svg"
 width="299.000000pt" height="258.000000pt" viewBox="0 0 299.000000 258.000000"
 preserveAspectRatio="xMidYMid meet">
<metadata>
Created by potrace 1.13, written by Peter Selinger 2001-2015
</metadata>
<g transform="translate(0.000000,258.000000) scale(0.100000,-0.100000)"
fill="#000000" stroke="none">
<path d="M667 2564 c-169 -30 -288 -88 -398 -191 -196 -185 -283 -477 -264
-883 5 -91 9 -246 9 -345 1 -117 6 -198 15 -230 38 -139 125 -251 234 -301 78
-36 196 -44 280 -20 30 9 57 16 60 16 2 0 8 -115 12 -256 l7 -256 76 -35 c182
-83 313 -82 458 3 37 22 42 30 48 71 3 25 6 75 6 110 0 58 2 64 18 58 166 -70
361 -61 493 24 63 39 100 91 106 146 5 40 3 44 -18 49 -112 23 -142 32 -196
58 -105 51 -182 146 -217 268 -16 55 -36 150 -31 150 1 0 40 -18 86 -39 120
-56 197 -74 294 -68 96 5 192 39 205 70 12 33 -2 52 -124 172 l-111 110 120 6
c79 4 134 12 163 24 45 19 82 57 82 85 0 25 -84 174 -136 241 -51 67 -127 137
-206 191 -32 21 -58 41 -58 43 0 2 5 16 11 32 6 15 11 57 10 93 l0 65 50 18
c28 10 69 37 94 61 42 40 45 46 45 95 0 48 -4 57 -37 90 -44 43 -187 109 -382
175 -301 103 -589 139 -804 100z"/>
<path d="M2550 1283 c-151 -52 -283 -102 -293 -111 -27 -24 -19 -74 14 -89 24
-12 54 -4 314 87 159 55 289 100 291 100 1 0 10 7 18 16 19 18 21 65 4 82 -23
23 -75 10 -348 -85z"/>
<path d="M2270 1010 c-25 -25 -26 -54 -1 -79 17 -17 45 -19 343 -26 237 -5
331 -4 346 4 44 23 36 96 -11 105 -12 3 -165 7 -339 11 -310 5 -318 5 -338
-15z"/>
<path d="M2224 845 c-59 -59 -33 -77 302 -199 161 -58 301 -106 312 -106 44 0
72 71 39 98 -13 11 -558 213 -606 225 -16 4 -30 -1 -47 -18z"/>
<path d="M2110 705 c-17 -20 -16 -64 1 -80 8 -7 108 -95 224 -194 219 -189
242 -203 278 -163 27 29 20 55 -25 98 -39 38 -298 262 -376 327 -37 30 -83 35
-102 12z"/>
</g>
</svg>
